Purtell_ProblemSet04
…
b.

nzge %>%
  filter(election_year == 2014, voting_type == "Candidate") %>%
  group_by(party) %>% 
  summarize(total_votes = sum(votes, na.rm = TRUE)) %>% 
  mutate(percent = 100 * total_votes / sum(total_votes)) %>% 
  arrange(desc(percent))

# A tibble: 25 × 3
   party                    total_votes percent
   <chr>                          <dbl>   <dbl>
 1 National Party               1081787  45.5  
 2 Labour Party                  801287  33.7  
 3 Green Party                   165718   6.98 
 4 Conservative Party             81075   3.41 
 5 New Zealand First Party        73384   3.09 
 6 Maori Party                    42108   1.77 
 7 MANA Movement                  32333   1.36 
 8 Informal Candidate Votes       27886   1.17 
 9 ACT New Zealand                27778   1.17 
10 United Future                  14722   0.620
# ℹ 15 more rows
…
The ATP dataset includes some tournaments that began in late 2018 but are part of the 2019 competitive season (for example, tournaments starting December 31, 2018). To handle this, I chose to include only tournaments that ended in 2019, reasoning that these were part of the 2019 season. Based on this filter, there were 128 tournaments in the 2019 season.

b.

tourney_winners = atp %>% 
  filter(round == "F") %>% 
  group_by(tourney_id, tourney_name) %>% 
  summarize(winner = first(winner_name), .groups = "drop")

For consistency, I defined a ‘tournament’ as any event with a recorded final match (round == “F”). This ensures the champion is identifiable. Using this criterion, 67 tournaments had a final recorded in 2019.

tourney_winners %>%
  count(winner, sort = TRUE)

# A tibble: 41 × 2
   winner                 n
   <chr>              <int>
 1 Dominic Thiem          5
 2 Novak Djokovic         5
 3 Daniil Medvedev        4
 4 Rafael Nadal           4
 5 Roger Federer          4
 6 Alex De Minaur         3
 7 Stefanos Tsitsipas     3
 8 Benoit Paire           2
 9 Cristian Garin         2
10 Jo-Wilfried Tsonga     2
# ℹ 31 more rows
…
